{
   "base_path_input": "sample_data",
   "base_path_output": "out/temp/paired_emid",
   "csv_file_delimiter": "\t",
   "paired_reads": true,
   "quality_scores": true,
   "external_MIDs": true,
   
   "input": [
      { 
         "forward_seq": "smpl01_frw.fastq", "reverse_seq": "smpl01_rev.fastq",
         "forward_mid": "smpl01_frw_mid.fastq", "reverse_mid": "smpl01_rev_mid.fastq" 
      }
   ],
   
   "steps": [
      {
         "apply": { 
            "to": "forward", 
            "step": { "quality_stats": { "out_prefix": "fwd_" } }
         }
      },
      {
         "apply": {
            "to": "reverse", 
            "step": { "quality_stats": { "out_prefix": "rev_" } }
         }
      },
      {
         "apply": { 
            "to": "forward", 
            "step": { "character_filter": {"chars": "ACGTacgt"} }
         }
      },
      {
         "apply": { 
            "to": ["forward", "reverse"], 
            "step": { "length_filter": { "min": 200, "passed_name": "pass_len" } }
         }
      },
      {
         "apply": { 
            "to": ["forward", "reverse"], 
            "step": { 
                "min_quality_window_filter": { 
                    "min_quality": 20, 
                    "min_length": 200, 
                    "passed_name": "pass_qual"
                } 
            }
         }
      },
      {
         "apply": { 
            "to": ["forward", "reverse"], 
            "step": { 
                "average_quality_window_filter": { 
                    "min_quality": 25, "window_length": 10, "min_length": 200
                }
            }
         }
      },
      { 
        "eMID_map": {
            "fasta_path": "emid1.fasta", "min_score": 28, "pairs_path": "emid1.txt"
        } 
      },
      {
         "apply": { 
            "to": "forward", 
            "step": {
               "match": { "elements": [
                     {
                     "start": { "pos": 14 }, "length": 8, "seq_file": "imid1.fasta",
                     "min_score": 10, "value_name": "iMID"
                     },
                     {
                     "end": { "before": "iMID" }, "length": 14, "value_name": "UMI"
                     }
                  ]
               }
            }
         }
      },
      {
         "apply": { 
            "to": "reverse", 
            "step": {
               "match": {
                  "reverse": true, 
                  "elements": [
                     {
                     "allow_gaps": true,
                     "start": { "pos": 0 }, "length": 300, 
                     "seq_file": "genes_1.fasta",
                     "min_match_length": 10, "min_score": 20, 
                     "value_name": "gene"
                     }
                  ]
               }
            }
         }
      }
   ]
}
