{
   "base_path_input": "sample_data",
   "base_path_output": "out/temp/intersection",
   "paired_reads": false,
   
   "input": [
      { "forward_seq": "intersection.fastq" }
   ],
   
   "steps": [
      { "match":
        {
            "reverse": true, "trimmed": false,
            "elements": [
                 {
                   "start": { "pos": 0 }, "length": 2,
                   "value_name": "UMI1", "cut_lower": {"after": 0}
                 },
                 {
                   "start": { "pos": 2 }, "length": 3,
                   "value_name": "UMI2", "cut_lower": {"after": 0}
                 }
            ]
        }
      },
      { "find_shared": { 
            "out_unique": "{UMI1}-u.fasta"
        }
      },
      { "find_shared": {
            "out_group_unique": "{UMI1}-{UMI2}-gu.fasta"
            
        }
      }
   ]
}
