{"base_path_input":"",
 "base_path_output":"",
 "summary_output_path":"summary.txt",
 "input":[{"sequence":"SRR765688.fastq"}],
 "steps":[
     {"length_filter":{"min":300}},
     {"average_quality_filter":{"min_quality":35}},
     {"homopolymer_filter":{"max_length":20}},
     {"composition_stats":{"out_prefix":"cs_"}},
     {"quality_stats":{"out_prefix":"qs_"}},

     {"match":{"reverse":false,
	       "elements":[{"max_mismatches":1,
			    "required":true,
			    "length":"20",
			    "seq_file":"SRR765688_MIDs.fasta",
			    "score_name":"mid-score",
			    "value_name":"MID",
			    "start":{"before":""}}]}},

     {"match":{"reverse":false,
	       "elements":[{"max_mismatches":1,
			    "required":true,
			    "length":"50",
			    "seq_file":"SRX190717_VPrimers.fasta",
			    "score_name":"vp-score",
			    "value_name":"VP",
			    "start":{"before":""}}]}},

     {"match":{"reverse":false,
	       "elements":[{"max_mismatches":1,
			    "required":true,
			    "length":"50",
			    "seq_file":"SRX190717_CPrimers_rev.fasta",
			    "score_name":"cp-score",
			    "value_name":"CP",
			    "end":{"after":""}}]}},

     {"write_sequence":{"out_path":"{MID}-{VP}-{CP}-seq.fastq"}},

     {"find_shared":{"out_group_unique":"total-unique.fasta","out_summary":"demultiplexing-summary.txt"}}
 ]
}
