{
   "steps": [
      { "match":
        {
           "combinations": [
               { 
                  "csv_file": {
                     "path": "mid_pairs_2.txt", 
                     "values_column": [ {"MID1": 1}, {"MID2": 2} ],
                     "names_column": 0,
                     "skip_header": true
                  },
                  "value_name": "sample"
               }
           ],
           "elements": [
               {
                 "start": { "pos":5 }, "length":6, 
                 "csv_file": { 
                     "path": "mid_pairs_2.txt", "sequences_column": "mid1"
                 },
                 "min_score": 12, "value_name": "MID1"
               },
               {
                 "end": { "after":"", "pos":0 }, "length":7,
                 "csv_file": { 
                     "path": "mid_pairs_2.txt", "sequences_column": "mid2"
                 },
                 "value_name": "MID2"
               }
           ],
           "reverse":true, "trimmed":true
        }
      },
      { "write_value": {
            "out_path": "vals.csv", 
            "names": ["read_id", "MID1", "MID2", "sample"]
        }
      }
   ],
   
   "base_path_input": "sample_data",
   "base_path_output": "out/temp/combinations2",
   "csv_file_delimiter": "\t",
   
   "input": [
      { "forward_seq":"mid_pair_1.fastq" }
   ]
}
