{
   "base_path_input": "sample_data",
   "base_path_output": "out/temp/combinations1",
   "csv_file_delimiter": "\t",
   
   "input": [
      { "forward_seq":"mid_pair_1.fastq" }
   ],
   
   "steps": [
      { "match":
        {
           "reverse":true, "trimmed":true,
           "elements": [
               {
                 "start": { "pos":5 }, "length":6, 
                 "csv_file": { 
                     "path": "mid_pairs_1.txt", "sequences_column": "mid1"
                 },
                 "min_score": 12, "value_name": "MID1"
               },
               {
                 "end": { "after":"", "pos":0 }, "length":7,
                 "csv_file": { 
                     "path": "mid_pairs_1.txt", "sequences_column": "mid2"
                 },
                 "value_name": "MID2"
               }
           ],
           "combinations": [
               { 
                  "csv_file": {
                     "path": "mid_pairs_1.txt", 
                     "values_column": [ {"MID1": "mid1"}, {"MID2": "mid2"} ],
                     "names_column": "name"
                  },
                  "value_name": "sample"
               }
           ]
        }
      },
      { "write_value": {
            "out_path": "vals.csv", "names": ["read_id", "MID1", "MID2", "sample"]
        }
      }
   ]
}
